<?xml version="1.0" encoding="UTF-8"?>
<svg width="24px" height="24px" viewBox="0 0 24 24" version="1.1" xmlns="http://www.w3.org/2000/svg" xmlns:xlink="http://www.w3.org/1999/xlink">
    <title>04F65C10-CC1C-4819-BF0F-D0846ADD2BC3</title>
    <g id="Artboard" stroke="none" stroke-width="1" fill="none" fill-rule="evenodd">
        <g id="Mading---Slide-1" transform="translate(-1192.000000, -422.000000)" fill="#FFFFFF" fill-rule="nonzero">
            <g id="ic_activity" transform="translate(1192.000000, 422.000000)">
                <g id="Activity" transform="translate(4.000000, 4.000000)">
                    <path d="M10.7599462,1.42421864 C10.7279464,1.62421564 10.7119464,1.82421264 10.7119464,2.02420964 C10.7119464,3.82418264 12.1679392,5.27936081 13.9599302,5.27936081 C14.1599292,5.27936081 14.3519282,5.25616116 14.5519272,5.22416164 L14.5519272,5.22416164 L14.5519272,11.6792648 C14.5519272,14.3920241 12.9519352,16 10.2319488,16 L10.2319488,16 L4.3207784,16 C1.599992,16 0,14.3920241 0,11.6792648 L0,11.6792648 L0,5.7601536 C0,3.0401944 1.599992,1.42421864 4.3207784,1.42421864 L4.3207784,1.42421864 L10.7599462,1.42421864 Z M10.9207454,6.28814568 C10.7039465,6.26414604 10.4887476,6.3601446 10.3599482,6.53614196 L10.3599482,6.53614196 L8.42475788,9.0401044 L6.20796896,7.29613056 C6.07196964,7.19213212 5.91197044,7.15133273 5.75197124,7.16813248 C5.59277204,7.19213212 5.44877276,7.27933081 5.35197324,7.40732889 L5.35197324,7.40732889 L2.98478508,10.4880827 L2.93598532,10.5600816 C2.799986,10.8152778 2.86398568,11.1432729 3.10398448,11.3200702 C3.21598392,11.3920691 3.33598332,11.4400684 3.47198264,11.4400684 C3.65678172,11.4480683 3.83198084,11.3512697 3.94398028,11.200072 L3.94398028,11.200072 L5.95197024,8.61531077 L8.23195884,10.3280851 L8.30395848,10.3752844 C8.5599572,10.5112823 8.8799556,10.4480833 9.06395468,10.2072869 L9.06395468,10.2072869 L11.3759431,7.22413164 L11.3439433,7.2401314 C11.4719426,7.06413404 11.4959425,6.8401374 11.407943,6.6401404 C11.3207434,6.4401434 11.1279444,6.30414544 10.9207454,6.28814568 Z M14.0720096,0 C15.1360043,0 16,0.86398704 16,1.92797108 C16,2.99195512 15.1360043,3.85594216 14.0720096,3.85594216 C13.008015,3.85594216 12.1440193,2.99195512 12.1440193,1.92797108 C12.1440193,0.86398704 13.008015,0 14.0720096,0 Z" id="Shape"></path>
                </g>
            </g>
        </g>
    </g>
</svg>